module gitlab.com/anarcat/wallabako

go 1.23

toolchain go1.24.0

require (
	github.com/Strubbl/wallabago/v9 v9.0.8
	github.com/dustin/go-humanize v1.0.1
	github.com/mattn/go-sqlite3 v1.14.24
	github.com/nightlyone/lockfile v1.0.0
	gopkg.in/natefinch/lumberjack.v2 v2.2.1
	modernc.org/sqlite v1.35.0
)

require (
	github.com/chromedp/cdproto v0.0.0-20230802225258-3cf4e6d46a89 // indirect
	github.com/chromedp/chromedp v0.9.2 // indirect
	github.com/chromedp/sysutil v1.0.0 // indirect
	github.com/chzyer/logex v1.2.1 // indirect
	github.com/chzyer/readline v1.5.1 // indirect
	github.com/chzyer/test v1.0.0 // indirect
	github.com/gobwas/httphead v0.1.0 // indirect
	github.com/gobwas/pool v0.2.1 // indirect
	github.com/gobwas/ws v1.2.1 // indirect
	github.com/google/go-cmp v0.6.0 // indirect
	github.com/google/pprof v0.0.0-20240409012703-83162a5b38cd // indirect
	github.com/google/uuid v1.6.0 // indirect
	github.com/hashicorp/golang-lru/v2 v2.0.7 // indirect
	github.com/ianlancetaylor/demangle v0.0.0-20240312041847-bd984b5ce465 // indirect
	github.com/josharian/intern v1.0.0 // indirect
	github.com/kballard/go-shellquote v0.0.0-20180428030007-95032a82bc51 // indirect
	github.com/ledongthuc/pdf v0.0.0-20220302134840-0c2507a12d80 // indirect
	github.com/mailru/easyjson v0.7.7 // indirect
	github.com/mattn/go-isatty v0.0.20 // indirect
	github.com/ncruces/go-strftime v0.1.9 // indirect
	github.com/orisano/pixelmatch v0.0.0-20220722002657-fb0b55479cde // indirect
	github.com/pbnjay/memory v0.0.0-20210728143218-7b4eea64cf58 // indirect
	github.com/pmezard/go-difflib v1.0.0 // indirect
	github.com/remyoudompheng/bigfft v0.0.0-20230129092748-24d4a6f8daec // indirect
	github.com/yuin/goldmark v1.4.13 // indirect
	golang.org/x/crypto v0.26.0 // indirect
	golang.org/x/exp v0.0.0-20231108232855-2478ac86f678 // indirect
	golang.org/x/mod v0.20.0 // indirect
	golang.org/x/net v0.28.0 // indirect
	golang.org/x/sync v0.10.0 // indirect
	golang.org/x/sys v0.28.0 // indirect
	golang.org/x/telemetry v0.0.0-20240521205824-bda55230c457 // indirect
	golang.org/x/term v0.23.0 // indirect
	golang.org/x/text v0.21.0 // indirect
	golang.org/x/tools v0.24.0 // indirect
	golang.org/x/xerrors v0.0.0-20240716161551-93cc26a95ae9 // indirect
	lukechampine.com/uint128 v1.3.0 // indirect
	modernc.org/cc/v3 v3.41.0 // indirect
	modernc.org/cc/v4 v4.24.4 // indirect
	modernc.org/ccgo/v3 v3.17.0 // indirect
	modernc.org/ccgo/v4 v4.23.16 // indirect
	modernc.org/ccorpus v1.11.6 // indirect
	modernc.org/ccorpus2 v1.5.2 // indirect
	modernc.org/fileutil v1.3.0 // indirect
	modernc.org/gc/v2 v2.6.3 // indirect
	modernc.org/gc/v3 v3.0.0-20240801135723-a856999a2e4a // indirect
	modernc.org/httpfs v1.0.6 // indirect
	modernc.org/lex v1.1.1 // indirect
	modernc.org/lexer v1.0.4 // indirect
	modernc.org/libc v1.61.13 // indirect
	modernc.org/mathutil v1.7.1 // indirect
	modernc.org/memory v1.8.2 // indirect
	modernc.org/opt v0.1.4 // indirect
	modernc.org/scannertest v1.0.2 // indirect
	modernc.org/sortutil v1.2.1 // indirect
	modernc.org/strutil v1.2.1 // indirect
	modernc.org/tcl v1.11.2 // indirect
	modernc.org/token v1.1.0 // indirect
	modernc.org/z v1.3.2 // indirect
)
